// Jest Snapshot v1, https://goo.gl/fbAQLP

exports[`raw string mangle by file id 1`] = `
<script>
  export const SET_X = "[data/input]SET_X";
export const SET_Y = "[data/input]SET_Y";
</script>
`;

exports[`raw string mangle by hash 1`] = `
<script>
  export const SET_X = "Jt95TvP+";
export const SET_Y = "dvodgtLU";
</script>
`;

exports[`raw string mangle by line number 1`] = `
<script>
  export const SET_X = "0";
export const SET_Y = "1";
</script>
`;

exports[`raw string no mangle 1`] = `
<script>
  export const SET_X = "SET_X";
export const SET_Y = "SET_Y";
</script>
`;

exports[`redux actions mangle by file 1`] = `
<script>
  import { createAction } from 'redux-actions';
export const SET_X = createAction("[data/input]SET_X");
export const SET_Y = createAction("[data/input]SET_Y");
</script>
`;

exports[`redux actions mangle by hash 1`] = `
<script>
  import { createAction } from 'redux-actions';
export const SET_X = createAction("Jt95TvP+");
export const SET_Y = createAction("dvodgtLU");
</script>
`;

